-1024.00000000
1023.00000000
  -1.00000000
   1.00000000
   0.00000000
   0.01154728
  -1.00000000
   1.00000000
 -28.55557899
 -25.08898297
  21.95541185
 -19.20087965
  16.18768603
 -13.39902654
  10.31473535
   7.35568000
  -3.95368057
  -1.56994732
  -1.69204883
   3.62612521
   7.49136087
 -10.87985193
  13.24439939
  17.13564868
 -19.60496307
 -19.14985535
 -28.15228792
  27.39001315
  -0.99241874
  27.44557013
  27.96643782
 -28.11231081
  27.96056488
 -28.00432428
  27.93035977
 -28.00025053
 -28.00312613
  28.06051792
  27.98598395
 -27.99107777
  28.12564753
  28.02039603
 -27.78069420
  28.00273143
  27.08817417
 -25.59036102
 -22.66951153
 -31.42845029
  28.45310369
  -0.00057034
  -0.00004859
   0.00005465
  -0.00006272
   0.00005772
  -0.00007435
   0.00030963
   0.00011292
  -0.00445313
   0.00004527
   0.00158154
  -0.00642683
  -0.01601896
   0.00894371
  -0.00456801
  -0.02710995
   0.12085902
   0.68193135
  -0.89437701
  -0.03047338
