-1024.00000000
1023.00000000
  -1.00000000
   1.00000000
   0.00000000
   0.50319791
  -1.00000000
   1.00000000
 -29.94166791
  25.15207558
  22.00514782
 -19.25594856
  16.22153222
 -13.22487799
 -10.24364081
   5.76445716
  -5.46094097
   3.23888429
   0.71349238
  -4.43859557
   7.33939558
 -10.28475231
  13.24734626
  16.26907581
 -19.20140269
 -24.02954753
  30.13617023
  28.04995822
   1.26960234
  26.06168524
 -27.91019697
 -28.07004987
  27.92792398
 -27.99363413
  28.01079599
  28.02219256
 -28.44523476
  28.07470770
 -27.20004458
  28.01516251
 -27.99643963
  28.00717311
 -28.01177245
  28.00575462
  27.96538590
 -27.96906327
 -26.34845093
  29.73076444
  27.10156142
  -0.63374373
  -0.00008027
   0.00001835
   0.00000739
   0.00001196
   0.00004604
  -0.00017658
  -0.01964441
  -0.04473827
  -0.02470933
   0.00056748
   0.00005522
   0.00001454
   0.00000232
  -0.00000422
   0.00002101
   0.00008131
  -0.00371069
   1.95924876
  -4.86617488
